…
## Part 4

Now I am computing the mode for the students and professors for each of
the questions.

``` r
total %>%
  group_by(question_id, respondent) %>%
  slice_max(order_by = value, n = 1) %>% 
  ungroup()
```

    ## # A tibble: 64 × 4
    ##    question_id respondent response_type value
    ##          <dbl> <chr>      <chr>         <dbl>
    ##  1           0 professor  totally_agree    70
    ##  2           0 student    totally_agree   122
    ##  3           1 professor  agree            55
    ##  4           1 student    agree           124
    ##  5           2 professor  agree            57
    ##  6           2 student    agree           119
    ##  7           3 professor  agree            55
    ##  8           3 student    agree           138
    ##  9           4 professor  agree            62
    ## 10           4 student    agree            85
    ## # ℹ 54 more rows

In order to make the data nice to present in a table we can select
`response_type`, `respondent` and `question_id` and use `pivot_wider()`
so to have one line per `question_id`.

``` r
total %>%
  group_by(question_id, respondent) %>%
  slice_max(order_by = value, n = 1) %>% # we keep the top 1 value for each group
  ungroup() %>% 
  select(-value) %>% 
  pivot_wider(names_from = respondent, values_from = response_type)
```

    ## # A tibble: 32 × 3
    ##    question_id professor     student      
    ##          <dbl> <chr>         <chr>        
    ##  1           0 totally_agree totally_agree
    ##  2           1 agree         agree        
    ##  3           2 agree         agree        
    ##  4           3 agree         agree        
    ##  5           4 agree         agree        
    ##  6           5 agree         agree        
    ##  7           6 agree         agree        
    ##  8           7 disagree      disagree     
    ##  9           8 disagree      disagree     
    ## 10           9 disagree      disagree     
    ## # ℹ 22 more rows
